{
    "latitude": 45.18766625,
    "longitude": 5.77868795590624,
    "range": 10,
    "results": [
        {
            "id": "11108",
            "name": "Ctre Hebergement Et Readaptation Sociale L'oiseau Bleu Giere",
            "address": "5 Place De L'eglise",
            "postal_code": "38610",
            "city": "Gieres",
            "latitude": "45.1801152",
            "longitude": "5.7900028",
            "category_id": "45",
            "distance": "1.2212236087462702"
        },
        {
            "id": "11214",
            "name": "Agduc Centre De Dialyse Meylan",
            "address": "31 Boulevard Des Alpes",
            "postal_code": "38240",
            "city": "Meylan",
            "latitude": "45.2034863",
            "longitude": "5.7714513806258",
            "category_id": "58",
            "distance": "1.848243114500552"
        }
    ]
}
