{
    "id": 26952,
    "category_id": 150,
    "name": "Arrobe",
    "address": "192 Avenue de la Résistance",
    "postal_code": "38920",
    "city": "Crolles",
    "latitude": 45.2867291,
    "longitude": 5.8861845
}
